[
  {
    "author": "Aaa",
    "message": "helloooo",
    "id": "nKU2P2fGSFLPccDenus-R",
    "datetime": "2019-03-18T05:31:08.243Z"
  },
  {
    "author": "Aоaa",
    "message": "helдддloooo",
    "id": "9b66daJFRU3RZ2kB0lbI2",
    "datetime": "2019-03-18T05:34:58.139Z"
  },
  {
    "author": "Aоaa",
    "message": "test",
    "id": "2LCzChp47cy9FpRL596eD",
    "datetime": "2019-03-18T05:35:08.579Z"
  },
  {
    "author": "Aоaa",
    "message": "testtttttt",
    "id": "ExF_XBLRIMf4ffYN4QE63",
    "datetime": "2019-03-18T05:35:13.405Z"
  }
]
